{
    "projectName": "iosProject",
    "projectPath": "/Users/karimhamdi/doc/iosProject",
    "defaultEditor": "sublime",
    "frontendHandler": {
        "ios": "/usr/local/lib/node_modules/@aws-amplify/cli/node_modules/amplify-frontend-ios"
    },
    "providers": {
        "awscloudformation": "/usr/local/lib/node_modules/@aws-amplify/cli/node_modules/amplify-provider-awscloudformation"
    }
}